{
	"name": "Sprite",
	"plugin-id": "Sprite",
	"sid": 941411534777654,
	"isGlobal": false,
	"instanceVariables": [],
	"behaviorTypes": [
		{
			"behaviorId": "Physics",
			"name": "Physics",
			"sid": 551821948358536
		}
	],
	"effectTypes": [],
	"animations": {
		"items": [
			{
				"frames": [
					{
						"width": 120,
						"height": 120,
						"originX": 0.5,
						"originY": 0.49882903981264637,
						"originalSource": "",
						"exportFormat": "png",
						"exportQuality": 0.8,
						"imageSpriteId": 49240,
						"collisionPoly": {
							"points": [
								0.1554054054054054,
								0.1405152224824356,
								0.5,
								0.00234192037470726,
								0.8423423423423423,
								0.1405152224824356,
								0.9954954954954955,
								0.49882903981264637,
								0.8423423423423423,
								0.8548009367681498,
								0.5,
								0.9953161592505855,
								0.1554054054054054,
								0.8548009367681498,
								0.0022522522522522522,
								0.49882903981264637
							]
						},
						"useCollisionPoly": true,
						"duration": 1
					}
				],
				"sid": 320658570693007,
				"name": "Animation 1",
				"isLooping": false,
				"isPingPong": false,
				"repeatCount": 1,
				"repeatTo": 0,
				"speed": 5
			}
		],
		"subfolders": []
	}
}